{
  "id": "771221512",
  "title": "Wreck-it Ralph",
  "year": 2012,
  "mpaa_rating": "PG",
  "runtime": 92,
  "critics_consensus": "Equally entertaining for both kids and parents old enough to catch the references, Wreck-It Ralph is a clever, colorful adventure built on familiar themes and joyful nostalgia.",
  "release_dates": {
    "theater": "2012-11-02",
    "dvd": "2013-03-05"
  },
  "ratings": {
    "critics_rating": "Certified Fresh",
    "critics_score": 85,
    "audience_rating": "Upright",
    "audience_score": 89
  },
  "synopsis": "Ralph (John C. Reilly) is tired of being overshadowed by Fix-It Felix (Jack McBrayer), the \"good guy\" star of their game who always gets to save the day. But after decades doing the same thing and seeing all the glory go to Felix, Ralph decides he's tired of playing the role of a bad guy. He takes matters into his own massive hands and sets off on a game-hopping journey across the arcade through every generation of video games to prove he's got what it takes to be a hero. On his quest, he meets the tough-as-nails Sergeant Calhoun (Jane Lynch) from the first-person action game Hero's Duty. But it's the feisty misfit Vanellope von Schweetz (Sarah Silverman) from the candy-coated cart racing game, Sugar Rush, whose world is threatened when Ralph accidentally unleashes a deadly enemy that threatens the entire arcade. Will Ralph realize his dream and save the day before it's too late? -- (C) Disney",
  "posters": {
    "thumbnail": "http://content7.flixster.com/movie/11/16/66/11166645_mob.jpg",
    "profile": "http://content7.flixster.com/movie/11/16/66/11166645_pro.jpg",
    "detailed": "http://content7.flixster.com/movie/11/16/66/11166645_det.jpg",
    "original": "http://content7.flixster.com/movie/11/16/66/11166645_ori.jpg"
  },
  "abridged_cast": [
    {
      "name": "John C. Reilly",
      "id": "162652855",
      "characters": [
        "Wreck-It Ralph"
      ]
    },
    {
      "name": "Sarah Silverman",
      "id": "162655308",
      "characters": [
        "Vanellope von Schweetz"
      ]
    },
    {
      "name": "Jack McBrayer",
      "id": "770700054",
      "characters": [
        "Fix-It Felix",
        "Fix-It Felix Jr."
      ]
    },
    {
      "name": "Jane Lynch",
      "id": "326392219",
      "characters": [
        "Sergeant Calhoun"
      ]
    },
    {
      "name": "Alan Tudyk",
      "id": "162654268",
      "characters": [
        "King Candy"
      ]
    }
  ],
  "alternate_ids": {
    "imdb": "1772341"
  },
  "links": {
    "self": "http://api.rottentomatoes.com/api/public/v1.0/movies/771221512.json",
    "alternate": "http://www.rottentomatoes.com/m/wreck_it_ralph/",
    "cast": "http://api.rottentomatoes.com/api/public/v1.0/movies/771221512/cast.json",
    "clips": "http://api.rottentomatoes.com/api/public/v1.0/movies/771221512/clips.json",
    "reviews": "http://api.rottentomatoes.com/api/public/v1.0/movies/771221512/reviews.json",
    "similar": "http://api.rottentomatoes.com/api/public/v1.0/movies/771221512/similar.json"
  }
}